{
    "items": [
      {
        "album": {
          "album_type": "SINGLE",
          "artists": [
            {
              "external_urls": {
                "spotify": "https://open.spotify.com/artist/1RVZxtad8x9NTOWddRiuSO"
              },
              "href": "https://api.spotify.com/v1/artists/1RVZxtad8x9NTOWddRiuSO",
              "id": "1RVZxtad8x9NTOWddRiuSO",
              "name": "Vasudha Ravi",
              "type": "artist",
              "uri": "spotify:artist:1RVZxtad8x9NTOWddRiuSO"
            },
            {
              "external_urls": {
                "spotify": "https://open.spotify.com/artist/1Qx1Su6tvfZT4orlkeMNQ5"
              },
              "href": "https://api.spotify.com/v1/artists/1Qx1Su6tvfZT4orlkeMNQ5",
              "id": "1Qx1Su6tvfZT4orlkeMNQ5",
              "name": "Vidya Kalyanaraman",
              "type": "artist",
              "uri": "spotify:artist:1Qx1Su6tvfZT4orlkeMNQ5"
            }
          ],
          "available_markets": [
            "AD",
            "AE",
            "AR",
            "AT",
            "AU",
            "BE",
            "BG",
            "BH",
            "BO",
            "BR",
            "CA",
            "CH",
            "CL",
            "CO",
            "CR",
            "CY",
            "CZ",
            "DE",
            "DK",
            "DO",
            "DZ",
            "EC",
            "EE",
            "EG",
            "ES",
            "FI",
            "FR",
            "GB",
            "GR",
            "GT",
            "HK",
            "HN",
            "HU",
            "ID",
            "IE",
            "IL",
            "IN",
            "IS",
            "IT",
            "JO",
            "JP",
            "KW",
            "LB",
            "LI",
            "LT",
            "LU",
            "LV",
            "MA",
            "MC",
            "MT",
            "MX",
            "MY",
            "NI",
            "NL",
            "NO",
            "NZ",
            "OM",
            "PA",
            "PE",
            "PH",
            "PL",
            "PS",
            "PT",
            "PY",
            "QA",
            "RO",
            "SA",
            "SE",
            "SG",
            "SK",
            "SV",
            "TH",
            "TN",
            "TR",
            "TW",
            "US",
            "UY",
            "VN",
            "ZA"
          ],
          "external_urls": {
            "spotify": "https://open.spotify.com/album/0FxOTwxh0WVzSzRbPIkHdd"
          },
          "href": "https://api.spotify.com/v1/albums/0FxOTwxh0WVzSzRbPIkHdd",
          "id": "0FxOTwxh0WVzSzRbPIkHdd",
          "images": [
            {
              "height": 640,
              "url": "https://i.scdn.co/image/ab67616d0000b2735a4f1fa30b45029756308931",
              "width": 640
            },
            {
              "height": 300,
              "url": "https://i.scdn.co/image/ab67616d00001e025a4f1fa30b45029756308931",
              "width": 300
            },
            {
              "height": 64,
              "url": "https://i.scdn.co/image/ab67616d000048515a4f1fa30b45029756308931",
              "width": 64
            }
          ],
          "name": "Valli Kanavan Perai",
          "release_date": "2022-01-14",
          "release_date_precision": "day",
          "total_tracks": 1,
          "type": "album",
          "uri": "spotify:album:0FxOTwxh0WVzSzRbPIkHdd"
        },
        "artists": [
          {
            "external_urls": {
              "spotify": "https://open.spotify.com/artist/1RVZxtad8x9NTOWddRiuSO"
            },
            "href": "https://api.spotify.com/v1/artists/1RVZxtad8x9NTOWddRiuSO",
            "id": "1RVZxtad8x9NTOWddRiuSO",
            "name": "Vasudha Ravi",
            "type": "artist",
            "uri": "spotify:artist:1RVZxtad8x9NTOWddRiuSO"
          },
          {
            "external_urls": {
              "spotify": "https://open.spotify.com/artist/1Qx1Su6tvfZT4orlkeMNQ5"
            },
            "href": "https://api.spotify.com/v1/artists/1Qx1Su6tvfZT4orlkeMNQ5",
            "id": "1Qx1Su6tvfZT4orlkeMNQ5",
            "name": "Vidya Kalyanaraman",
            "type": "artist",
            "uri": "spotify:artist:1Qx1Su6tvfZT4orlkeMNQ5"
          }
        ],
        "available_markets": [
          "AD",
          "AE",
          "AR",
          "AT",
          "AU",
          "BE",
          "BG",
          "BH",
          "BO",
          "BR",
          "CA",
          "CH",
          "CL",
          "CO",
          "CR",
          "CY",
          "CZ",
          "DE",
          "DK",
          "DO",
          "DZ",
          "EC",
          "EE",
          "EG",
          "ES",
          "FI",
          "FR",
          "GB",
          "GR",
          "GT",
          "HK",
          "HN",
          "HU",
          "ID",
          "IE",
          "IL",
          "IN",
          "IS",
          "IT",
          "JO",
          "JP",
          "KW",
          "LB",
          "LI",
          "LT",
          "LU",
          "LV",
          "MA",
          "MC",
          "MT",
          "MX",
          "MY",
          "NI",
          "NL",
          "NO",
          "NZ",
          "OM",
          "PA",
          "PE",
          "PH",
          "PL",
          "PS",
          "PT",
          "PY",
          "QA",
          "RO",
          "SA",
          "SE",
          "SG",
          "SK",
          "SV",
          "TH",
          "TN",
          "TR",
          "TW",
          "US",
          "UY",
          "VN",
          "ZA"
        ],
        "disc_number": 1,
        "duration_ms": 209333,
        "explicit": false,
        "external_ids": {
          "isrc": "USA2P2201378"
        },
        "external_urls": {
          "spotify": "https://open.spotify.com/track/3sUFlc1fW65Z0sPLPezN8G"
        },
        "href": "https://api.spotify.com/v1/tracks/3sUFlc1fW65Z0sPLPezN8G",
        "id": "3sUFlc1fW65Z0sPLPezN8G",
        "is_local": false,
        "name": "Valli Kanavan Perai",
        "popularity": 14,
        "preview_url": "https://p.scdn.co/mp3-preview/d40088d1cca1a577c35e1ff19d5ec3001409dec6?cid=abfaf9531c564593b558d7fc34106ee8",
        "track_number": 1,
        "type": "track",
        "uri": "spotify:track:3sUFlc1fW65Z0sPLPezN8G"
      },
      {
        "album": {
          "album_type": "COMPILATION",
          "artists": [
            {
              "external_urls": {
                "spotify": "https://open.spotify.com/artist/0LyfQWJT6nXafLPZqxe9Of"
              },
              "href": "https://api.spotify.com/v1/artists/0LyfQWJT6nXafLPZqxe9Of",
              "id": "0LyfQWJT6nXafLPZqxe9Of",
              "name": "Various Artists",
              "type": "artist",
              "uri": "spotify:artist:0LyfQWJT6nXafLPZqxe9Of"
            }
          ],
          "available_markets": [
            "IN"
          ],
          "external_urls": {
            "spotify": "https://open.spotify.com/album/0yOpCJMpwnny6VDtwlaUkF"
          },
          "href": "https://api.spotify.com/v1/albums/0yOpCJMpwnny6VDtwlaUkF",
          "id": "0yOpCJMpwnny6VDtwlaUkF",
          "images": [
            {
              "height": 640,
              "url": "https://i.scdn.co/image/ab67616d0000b273798efa25053ca0267af6627c",
              "width": 640
            },
            {
              "height": 300,
              "url": "https://i.scdn.co/image/ab67616d00001e02798efa25053ca0267af6627c",
              "width": 300
            },
            {
              "height": 64,
              "url": "https://i.scdn.co/image/ab67616d00004851798efa25053ca0267af6627c",
              "width": 64
            }
          ],
          "name": "Raja Raja Cholan",
          "release_date": "1973-12-31",
          "release_date_precision": "day",
          "total_tracks": 7,
          "type": "album",
          "uri": "spotify:album:0yOpCJMpwnny6VDtwlaUkF"
        },
        "artists": [
          {
            "external_urls": {
              "spotify": "https://open.spotify.com/artist/0POTtVVziAK15RvxYMP3H1"
            },
            "href": "https://api.spotify.com/v1/artists/0POTtVVziAK15RvxYMP3H1",
            "id": "0POTtVVziAK15RvxYMP3H1",
            "name": "Sirkazhi Govindarajan",
            "type": "artist",
            "uri": "spotify:artist:0POTtVVziAK15RvxYMP3H1"
          }
        ],
        "available_markets": [
          "IN"
        ],
        "disc_number": 1,
        "duration_ms": 243080,
        "explicit": false,
        "external_ids": {
          "isrc": "INH100504005"
        },
        "external_urls": {
          "spotify": "https://open.spotify.com/track/5aJJ8WjVA7zjmWQuZMQazt"
        },
        "href": "https://api.spotify.com/v1/tracks/5aJJ8WjVA7zjmWQuZMQazt",
        "id": "5aJJ8WjVA7zjmWQuZMQazt",
        "is_local": false,
        "name": "Thanjai Periya Koil",
        "popularity": 6,
        "preview_url": "https://p.scdn.co/mp3-preview/ca5571e20e39f2462dd568da14657a7c9aacf60e?cid=abfaf9531c564593b558d7fc34106ee8",
        "track_number": 2,
        "type": "track",
        "uri": "spotify:track:5aJJ8WjVA7zjmWQuZMQazt"
      },
      {
        "album": {
          "album_type": "ALBUM",
          "artists": [
            {
              "external_urls": {
                "spotify": "https://open.spotify.com/artist/15yz38oBmpgT4UIiWADOyX"
              },
              "href": "https://api.spotify.com/v1/artists/15yz38oBmpgT4UIiWADOyX",
              "id": "15yz38oBmpgT4UIiWADOyX",
              "name": "K. V. Mahadevan",
              "type": "artist",
              "uri": "spotify:artist:15yz38oBmpgT4UIiWADOyX"
            },
            {
              "external_urls": {
                "spotify": "https://open.spotify.com/artist/0YLTEt48dwAEsoAR9CxhQB"
              },
              "href": "https://api.spotify.com/v1/artists/0YLTEt48dwAEsoAR9CxhQB",
              "id": "0YLTEt48dwAEsoAR9CxhQB",
              "name": "Kannadasan",
              "type": "artist",
              "uri": "spotify:artist:0YLTEt48dwAEsoAR9CxhQB"
            }
          ],
          "available_markets": [
            "IN"
          ],
          "external_urls": {
            "spotify": "https://open.spotify.com/album/457UJGh3CdQhYTmtnP0Lvm"
          },
          "href": "https://api.spotify.com/v1/albums/457UJGh3CdQhYTmtnP0Lvm",
          "id": "457UJGh3CdQhYTmtnP0Lvm",
          "images": [
            {
              "height": 640,
              "url": "https://i.scdn.co/image/ab67616d0000b273eaf755eb63537f7cb1c6e0e6",
              "width": 640
            },
            {
              "height": 300,
              "url": "https://i.scdn.co/image/ab67616d00001e02eaf755eb63537f7cb1c6e0e6",
              "width": 300
            },
            {
              "height": 64,
              "url": "https://i.scdn.co/image/ab67616d00004851eaf755eb63537f7cb1c6e0e6",
              "width": 64
            }
          ],
          "name": "Idhaya Kamalam",
          "release_date": "1965-12-31",
          "release_date_precision": "day",
          "total_tracks": 7,
          "type": "album",
          "uri": "spotify:album:457UJGh3CdQhYTmtnP0Lvm"
        },
        "artists": [
          {
            "external_urls": {
              "spotify": "https://open.spotify.com/artist/0aFGod7DM6b3O5l1AmvFwK"
            },
            "href": "https://api.spotify.com/v1/artists/0aFGod7DM6b3O5l1AmvFwK",
            "id": "0aFGod7DM6b3O5l1AmvFwK",
            "name": "P. Susheela",
            "type": "artist",
            "uri": "spotify:artist:0aFGod7DM6b3O5l1AmvFwK"
          }
        ],
        "available_markets": [
          "IN"
        ],
        "disc_number": 1,
        "duration_ms": 316413,
        "explicit": false,
        "external_ids": {
          "isrc": "INH100220090"
        },
        "external_urls": {
          "spotify": "https://open.spotify.com/track/5DdDvfA3rk1sJeppaki2a0"
        },
        "href": "https://api.spotify.com/v1/tracks/5DdDvfA3rk1sJeppaki2a0",
        "id": "5DdDvfA3rk1sJeppaki2a0",
        "is_local": false,
        "name": "Unnai Kaanadha Kannum",
        "popularity": 36,
        "preview_url": "https://p.scdn.co/mp3-preview/3e9adaaf3007130df355f2f07a562035af52905a?cid=abfaf9531c564593b558d7fc34106ee8",
        "track_number": 3,
        "type": "track",
        "uri": "spotify:track:5DdDvfA3rk1sJeppaki2a0"
      },
      {
        "album": {
          "album_type": "SINGLE",
          "artists": [
            {
              "external_urls": {
                "spotify": "https://open.spotify.com/artist/62FaUNuh9WuO4932LEQWyr"
              },
              "href": "https://api.spotify.com/v1/artists/62FaUNuh9WuO4932LEQWyr",
              "id": "62FaUNuh9WuO4932LEQWyr",
              "name": "Kunnakudi Vaidyanathan",
              "type": "artist",
              "uri": "spotify:artist:62FaUNuh9WuO4932LEQWyr"
            }
          ],
          "available_markets": [
            "IN"
          ],
          "external_urls": {
            "spotify": "https://open.spotify.com/album/51mRQTvBv9moYSbk2m0LKY"
          },
          "href": "https://api.spotify.com/v1/albums/51mRQTvBv9moYSbk2m0LKY",
          "id": "51mRQTvBv9moYSbk2m0LKY",
          "images": [
            {
              "height": 640,
              "url": "https://i.scdn.co/image/ab67616d0000b27385d135e297fb05910ba78f7d",
              "width": 640
            },
            {
              "height": 300,
              "url": "https://i.scdn.co/image/ab67616d00001e0285d135e297fb05910ba78f7d",
              "width": 300
            },
            {
              "height": 64,
              "url": "https://i.scdn.co/image/ab67616d0000485185d135e297fb05910ba78f7d",
              "width": 64
            }
          ],
          "name": "Dheivam",
          "release_date": "1972-12-31",
          "release_date_precision": "day",
          "total_tracks": 1,
          "type": "album",
          "uri": "spotify:album:51mRQTvBv9moYSbk2m0LKY"
        },
        "artists": [
          {
            "external_urls": {
              "spotify": "https://open.spotify.com/artist/4y01WeCT5mNIAYRPjJ4sgj"
            },
            "href": "https://api.spotify.com/v1/artists/4y01WeCT5mNIAYRPjJ4sgj",
            "id": "4y01WeCT5mNIAYRPjJ4sgj",
            "name": "T. M. Soundararajan",
            "type": "artist",
            "uri": "spotify:artist:4y01WeCT5mNIAYRPjJ4sgj"
          },
          {
            "external_urls": {
              "spotify": "https://open.spotify.com/artist/0POTtVVziAK15RvxYMP3H1"
            },
            "href": "https://api.spotify.com/v1/artists/0POTtVVziAK15RvxYMP3H1",
            "id": "0POTtVVziAK15RvxYMP3H1",
            "name": "Sirkazhi Govindarajan",
            "type": "artist",
            "uri": "spotify:artist:0POTtVVziAK15RvxYMP3H1"
          }
        ],
        "available_markets": [
          "IN"
        ],
        "disc_number": 1,
        "duration_ms": 209813,
        "explicit": false,
        "external_ids": {
          "isrc": "INH100229310"
        },
        "external_urls": {
          "spotify": "https://open.spotify.com/track/2V8XqU0DjN14o1rnEbVf7T"
        },
        "href": "https://api.spotify.com/v1/tracks/2V8XqU0DjN14o1rnEbVf7T",
        "id": "2V8XqU0DjN14o1rnEbVf7T",
        "is_local": false,
        "name": "Thiruchendurin",
        "popularity": 29,
        "preview_url": "https://p.scdn.co/mp3-preview/bb643b73e1915063f7d15c23a7ff22e5508cddde?cid=abfaf9531c564593b558d7fc34106ee8",
        "track_number": 1,
        "type": "track",
        "uri": "spotify:track:2V8XqU0DjN14o1rnEbVf7T"
      },
      {
        "album": {
          "album_type": "ALBUM",
          "artists": [
            {
              "external_urls": {
                "spotify": "https://open.spotify.com/artist/2ae6PxICSOZHvjqiCcgon8"
              },
              "href": "https://api.spotify.com/v1/artists/2ae6PxICSOZHvjqiCcgon8",
              "id": "2ae6PxICSOZHvjqiCcgon8",
              "name": "S. P. Balasubrahmanyam",
              "type": "artist",
              "uri": "spotify:artist:2ae6PxICSOZHvjqiCcgon8"
            }
          ],
          "available_markets": [
            "AD",
            "AE",
            "AR",
            "AT",
            "AU",
            "BE",
            "BG",
            "BH",
            "BO",
            "BR",
            "CA",
            "CH",
            "CL",
            "CO",
            "CR",
            "CY",
            "CZ",
            "DE",
            "DK",
            "DO",
            "DZ",
            "EC",
            "EE",
            "EG",
            "ES",
            "FI",
            "FR",
            "GB",
            "GR",
            "GT",
            "HK",
            "HN",
            "HU",
            "ID",
            "IE",
            "IL",
            "IN",
            "IS",
            "IT",
            "JO",
            "JP",
            "KW",
            "LB",
            "LI",
            "LT",
            "LU",
            "LV",
            "MA",
            "MC",
            "MT",
            "MX",
            "MY",
            "NI",
            "NL",
            "NO",
            "NZ",
            "OM",
            "PA",
            "PE",
            "PH",
            "PL",
            "PS",
            "PT",
            "PY",
            "QA",
            "RO",
            "SA",
            "SE",
            "SG",
            "SK",
            "SV",
            "TH",
            "TN",
            "TR",
            "TW",
            "US",
            "UY",
            "VN",
            "ZA"
          ],
          "external_urls": {
            "spotify": "https://open.spotify.com/album/7oTbtxa7EKqPkeWwlVViNj"
          },
          "href": "https://api.spotify.com/v1/albums/7oTbtxa7EKqPkeWwlVViNj",
          "id": "7oTbtxa7EKqPkeWwlVViNj",
          "images": [
            {
              "height": 640,
              "url": "https://i.scdn.co/image/ab67616d0000b273724b6702d4689d6b3882984a",
              "width": 640
            },
            {
              "height": 300,
              "url": "https://i.scdn.co/image/ab67616d00001e02724b6702d4689d6b3882984a",
              "width": 300
            },
            {
              "height": 64,
              "url": "https://i.scdn.co/image/ab67616d00004851724b6702d4689d6b3882984a",
              "width": 64
            }
          ],
          "name": "Sigaram (Original Motion Picture Soundtrack)",
          "release_date": "1990-06-02",
          "release_date_precision": "day",
          "total_tracks": 13,
          "type": "album",
          "uri": "spotify:album:7oTbtxa7EKqPkeWwlVViNj"
        },
        "artists": [
          {
            "external_urls": {
              "spotify": "https://open.spotify.com/artist/2ae6PxICSOZHvjqiCcgon8"
            },
            "href": "https://api.spotify.com/v1/artists/2ae6PxICSOZHvjqiCcgon8",
            "id": "2ae6PxICSOZHvjqiCcgon8",
            "name": "S. P. Balasubrahmanyam",
            "type": "artist",
            "uri": "spotify:artist:2ae6PxICSOZHvjqiCcgon8"
          },
          {
            "external_urls": {
              "spotify": "https://open.spotify.com/artist/2IUtwMti1OiT3lkW6RubgH"
            },
            "href": "https://api.spotify.com/v1/artists/2IUtwMti1OiT3lkW6RubgH",
            "id": "2IUtwMti1OiT3lkW6RubgH",
            "name": "சித்ரா",
            "type": "artist",
            "uri": "spotify:artist:2IUtwMti1OiT3lkW6RubgH"
          }
        ],
        "available_markets": [
          "AD",
          "AE",
          "AR",
          "AT",
          "AU",
          "BE",
          "BG",
          "BH",
          "BO",
          "BR",
          "CA",
          "CH",
          "CL",
          "CO",
          "CR",
          "CY",
          "CZ",
          "DE",
          "DK",
          "DO",
          "DZ",
          "EC",
          "EE",
          "EG",
          "ES",
          "FI",
          "FR",
          "GB",
          "GR",
          "GT",
          "HK",
          "HN",
          "HU",
          "ID",
          "IE",
          "IL",
          "IN",
          "IS",
          "IT",
          "JO",
          "JP",
          "KW",
          "LB",
          "LI",
          "LT",
          "LU",
          "LV",
          "MA",
          "MC",
          "MT",
          "MX",
          "MY",
          "NI",
          "NL",
          "NO",
          "NZ",
          "OM",
          "PA",
          "PE",
          "PH",
          "PL",
          "PS",
          "PT",
          "PY",
          "QA",
          "RO",
          "SA",
          "SE",
          "SG",
          "SK",
          "SV",
          "TH",
          "TN",
          "TR",
          "TW",
          "US",
          "UY",
          "VN",
          "ZA"
        ],
        "disc_number": 1,
        "duration_ms": 278987,
        "explicit": false,
        "external_ids": {
          "isrc": "INV169000234"
        },
        "external_urls": {
          "spotify": "https://open.spotify.com/track/2liGiifmqpHDUkJo5yeAMy"
        },
        "href": "https://api.spotify.com/v1/tracks/2liGiifmqpHDUkJo5yeAMy",
        "id": "2liGiifmqpHDUkJo5yeAMy",
        "is_local": false,
        "name": "Idho Idho En Pallavi",
        "popularity": 44,
        "preview_url": "https://p.scdn.co/mp3-preview/b18093ab4e3af5ba3cf4d23c38a070846ed58894?cid=abfaf9531c564593b558d7fc34106ee8",
        "track_number": 2,
        "type": "track",
        "uri": "spotify:track:2liGiifmqpHDUkJo5yeAMy"
      }
    ],
    "total": 50,
    "limit": 5,
    "offset": 0,
    "href": "https://api.spotify.com/v1/me/top/tracks?limit=5&offset=0&time_range=short_term",
    "next": "https://api.spotify.com/v1/me/top/tracks?limit=5&offset=5&time_range=short_term",
    "previous": null
  }